{
"wallpaper":"http://www.kf666888.cn/api/tvbox/img",




"spider":"https://gitlab.com/qq925067429/123/-/raw/main/%E7%B2%BE%E7%BB%86%E7%BC%9D%E5%90%88.jar",
"sites": [
{"key":"csp_SP361"                  ,"name":"360(SP)","type":3,"api":"csp_SP360","searchable":1,"quickSearch":1,"filterable":1},
{"key":"csp_Wmkk"                   ,"name":"完美看看","api":"csp_Wmkk","type":3,"filterable":1,"quickSearch":1,"searchable":1},
{"key":"csp_Dy555"                  ,"name":"555(SP)","type":3,"api":"csp_Dy555","searchable":1,"quickSearch":1,"filterable":1},
{"key":"csp_Kuaikan"                ,"name":"快看影视","type":3,"api":"csp_Kuaikan","searchable":1,"quickSearch":1,"filterable":1},
{"key":"csp_LiteApple"              ,"name":"小苹果","type":3,"api":"csp_LiteApple","searchable":1,"quickSearch":1,"filterable":1},
{"key":"csp_Auete"                  ,"name":"Auete","type": 3,"api":"csp_Auete","searchable":1,"quickSearch":1,"filterable":1},
{"key":"厂长影视"                    ,"name":"厂长影视","type":3,"api":"csp_Czsapp","searchable":1,"quickSearch":1,"filterable":1},
{"key":"csp_Cokemv"                 ,"name":"Cokemv","type":3,"api":"csp_Cokemv","searchable":1,"quickSearch":1,"filterable":1},
{"key": "Lib"                       ,"name":"Libvio","type": 3,"api": "csp_Lib","searchable": 0,"quickSearch": 1,"filterable": 1},
{"key":"Lezhu_spider"               ,"name":"乐猪影视","api":"csp_Lezhu","type":3,"filterable":1,"quickSearch":1,"searchable":1,"ext":""}, 
{"key": "剧荒TV（SP）"               ,"name":"剧荒TV(SP)","type":3,"api":"csp_Juhuang","searchable":1,"quickSearch":1,"filterable":1},
{"key": "Ikan"                      ,"name":"爱看","type":3,"api":"csp_IKan","searchable":1,"quickSearch":1,"filterable":1},
{"key":"csp_DiDuan"                 ,"name":"低端影视","type":3,"api":"csp_Ddrk","searchable":1,"quickSearch":1,"filterable":1},
{"key":"Smdyy_spider"               ,"name":"神马影视","api":"csp_Smdyy","type":3,"filterable":1,"quickSearch":1,"searchable":1,"ext":""},
{"key":"3EDY"                       ,"name":"3EDY(EXO)","type":3,"api":"csp_EEEDY","searchable":1,"quickSearch":1,"filterable":1},
{"key":"追剧喵"                      ,"name":"追剧喵(SP)","type":3,"api":"csp_ZJMiao","searchable":1,"quickSearch":1,"filterable":1},
{"key":"csp_Kuaikan"                ,"name":"快看(SP)","type":3,"api":"csp_Kuaikan","searchable":1,"quickSearch":1,"filterable":1},
{"key":"在线之家"                    ,"name":"在线之家","type":3,"api":"csp_Zxzj","searchable":1,"quickSearch":1,"filterable":1},
{"key":"csp_Mjxq"                   ,"name":"美剧星球","type":3,"api":"csp_Mjxq","searchable":1,"quickSearch":1,"filterable":1},
{"key":"csp_Bttoo"                  ,"name":"两个BT","type":3,"api":"csp_Bttoo","searchable":1,"quickSearch":1,"filterable":1},
{"key":"csp_Smdyy"                  ,"name":"电影院","api":"csp_Smdyy","type":3,"filterable":1,"quickSearch":1,"searchable":1,"ext":""},
{"key":"csp_KanSJ"                  ,"name":"看视界","api":"csp_KanSJ","type":3,"filterable":1,"quickSearch":1,"searchable":1,"ext":""},
{"key":"293视频"                    ,"name":"293视频","api":"csp_SP293","type":3,"filterable":1,"quickSearch":1,"searchable":1},
{"key": "csp_Yisou"                 ,"name":"易搜盘","type":3,"api":"csp_Yisou","searchable":1,"quickSearch":1,"filterable":0,"ext":"d672bc05705c4c1baf1488be0af52599"},
{"key": "csp_Gitcafe"               ,"name":"阿里纸条","type":3,"api":"csp_Gitcafe","searchable":1,"quickSearch":1,"filterable":0,"ext":"d672bc05705c4c1baf1488be0af52599"},  
{"key": "csp_AliPS"                 ,"name":"阿里喵搜","type":3,"api":"csp_AliPS","searchable":1,"quickSearch":1,"filterable":0,"ext":"d672bc05705c4c1baf1488be0af52599"},
{"key":"Zhaozy"                     ,"name":"找资源","type":3,"api":"csp_Zhaozy","searchable":1,"quickSearch":1,"filterable":1,"ext":"d672bc05705c4c1baf1488be0af52599"},
{"key": "影图"                      ,"name": "影图","type":1,"api":"https://cj.vodimg.top/api.php/provide/vod/","searchable":1,"quickSearch":1,"filterable":0},
{"key":"csp_77"                     ,"name":"酷云七七","type":3,"api":"csp_Kunyu77","searchable":1,"quickSearch":1,"filterable":1},
{"key":"优众影视"                    ,"name":"优众影视","type":3,"api":"csp_AppYs","searchable":0,"quickSearch":0,"filterable":0,"ext":"http://121.205.88.178:8090/xgapp.php/v2/"},
{"key":"9E03"                       ,"name":"9E03","type":3,"api":"csp_AppYsV2","searchable":1,"quickSearch":1,"filterable":1,"ext":"https://vod.9e03.com/lvdou_api.php/v1.vod"},
{"key":"csp_Anime1"                 ,"name":"Anime","type":3,"api":"csp_Anime1","searchable":1,"quickSearch":1,"filterable":1},
{"key":"T4","name":"T4","type":4,"api":"https://t4.catvod.eu.org/catvod/gaze","searchable":1,"quickSearch":1,"filterable":1},


{"key":"csp_QQ","name":"腾视频(SP)","type": 3,"api":"csp_QQ","searchable": 1,"quickSearch": 1,"filterable": 1,"jar":"https://ghproxy.com/https://raw.githubusercontent.com/qq925067429/box/main/sub/ext/sp06.txt"},
{"key":"csp_IQIYI","name":"爱奇艺(SP)","type":3,"api":"csp_IQIYI","quickSearch":1,"searchable":1,"filterable":1,"jar":"https://ghproxy.com/https://raw.githubusercontent.com/qq925067429/box/main/sub/ext/sp06.txt"},
{"key":"csp_MGTV","name":"芒果TV(SP)","type":3,"api":"csp_MGTV","searchable":1,"quickSearch":1,"filterable":1,"jar":"https://ghproxy.com/https://raw.githubusercontent.com/qq925067429/box/main/sub/ext/sp06.txt"},
{"key": "csp_Jianying","name": "简影资源","type": 3,"api": "csp_JianYing","searchable": 1,"quickSearch": 1,"filterable": 0,"ext": "eyJhbGciOiJIUzI1NiIsInR5cCI6IkpXVCJ9.eyJ1c2VyIjp7IklEIjozMDk1MCwiQ3JlYXRlZEF0IjoiMjAyMi0wOC0xNlQyMzoyNjoyMi4xNDQrMDg6MDAiLCJVcGRhdGVkQXQiOiIyMDIyLTA4LTE2VDIzOjI2OjIyLjE0NCswODowMCIsIkRlbGV0ZWRBdCI6bnVsbCwidXNlcl9lbWFpbCI6IjIzMDg4MTcwMTBAcXEuY29tIiwidXNlcl9uYW1lIjoiIiwidXNlcl9wd2QiOiIiLCJ1c2VyX2lkIjoiY2ZhYzE3Y2QtMmY5Mi00MTlkLTgwZTctYzRlNGI3YTk3MjNlIiwidXNlcl9hbnN3ZXIiOiIiLCJsb2NrX2lzIjoiRmFsc2UiLCJpc190diI6IiIsImlzX2FkbWluIjoiRmFsc2UiLCJyZWdfdGltZSI6bnVsbCwicmVnX2tleSI6IiIsInR2X3RpbWUiOm51bGwsInR2X2tleSI6IiJ9LCJleHAiOjE2NjEyNjgzODcsImlzcyI6IkFsZnJlZG8gTWVuZG96YSJ9.jkloD7HymtrLwvWaiAHOsxxqSqN2j7RgitKDhJS5e5Q","jar":"https://agit.ai/jm/me/raw/branch/master/ja/XC0817w.jar;md5;5D578B37A92E7C6AD0987EBC57E83E60"},
{"key":"555","name":"555电影(XB)","type":3,"api":"csp_XBiubiu","searchable":1,"quickSearch":1,"filterable":0,"ext":"https://gitea.com/qq925067429/123/raw/branch/main/555.json"},
{"key":"csp_biubiu_厂长资源-蓝光","name":"厂长资源-蓝光(XB)","type":3,"api":"csp_XBiubiu","searchable":0,"quickSearch":0,"filterable":0,"ext":"https://ghproxy.com/https://raw.githubusercontent.com/qq925067429/freed/master/TVBox/MaooXB2/厂长资源-蓝光.json"},
{"key":"csp_biubiu_LIBVIO","name":"LIBVIO(XB)","type":3,"api":"csp_XBiubiu","searchable":1,"quickSearch":1,"filterable":0,"ext":"https://ghproxy.com/https://raw.githubusercontent.com/qq925067429/freed/master/TVBox/MaooXB2/LIBVIO.json"},
{"key":"csp_biubiu_COKEMV","name":"COKEMV(XB)","type":3,"api":"csp_XBiubiu","searchable":1,"quickSearch":1,"filterable":0,"ext":"https://ghproxy.com/https://raw.githubusercontent.com/qq925067429/freed/master/TVBox/MaooXB2/COKEMV.json"},
{"key":"csp_biubiu_影视工厂","name":"影视工厂(XB)","type":3,"api":"csp_XBiubiu","searchable":1,"quickSearch":1,"filterable":0,"ext":"https://ghproxy.com/https://raw.githubusercontent.com/qq925067429/freed/master/TVBox/MaooXB2/影视工厂.json"},
{"key":"csp_biubiu_蓝光影院","name":"蓝光影院(XB)","type":3,"api":"csp_XBiubiu","searchable":1,"quickSearch":1,"filterable":0,"ext":"https://ghproxy.com/https://raw.githubusercontent.com/qq925067429/freed/master/TVBox/MaooXB2/蓝光影院.json"},
{"key":"csp_biubiu_骚火电影","name":"骚火电影(XB)","type":3,"api":"csp_XBiubiu","searchable":1,"quickSearch":1,"filterable":0,"ext":"https://ghproxy.com/https://raw.githubusercontent.com/qq925067429/freed/master/TVBox/MaooXB2/骚火电影.json"},
{"key":"csp_biubiu_完美看看影视","name":"完美看看影视(XB)","type":3,"api":"csp_XBiubiu","searchable":1,"quickSearch":1,"filterable":0,"ext":"https://ghproxy.com/https://raw.githubusercontent.com/qq925067429/freed/master/TVBox/MaooXB2/完美看看影视.json"},
{"key":"csp_biubiu_花猫TV","name":"花猫TV(XB)","type":3,"api":"csp_XBiubiu","searchable":1,"quickSearch":1,"filterable":0,"ext":"https://ghproxy.com/https://raw.githubusercontent.com/qq925067429/freed/master/TVBox/MaooXB2/花猫TV.json"},
{"key":"csp_biubiu_看一看影视","name":"看一看影视(XB)","type":3,"api":"csp_XBiubiu","searchable":1,"quickSearch":1,"filterable":0,"ext":"https://ghproxy.com/https://raw.githubusercontent.com/qq925067429/freed/master/TVBox/MaooXB2/看一看影视.json"},
{"key":"csp_biubiu_奇优影院（不支持搜）","name":"奇优影院（不支持搜）(XB)","type":3,"api":"csp_XBiubiu","searchable":0,"quickSearch":0,"filterable":0,"ext":"https://ghproxy.com/https://raw.githubusercontent.com/qq925067429/freed/master/TVBox/MaooXB2/奇优影院（不支持搜）.json"},
{"key":"csp_biubiu_city电影","name":"city电影(XB)","type":3,"api":"csp_XBiubiu","searchable":1,"quickSearch":1,"filterable":0,"ext":"https://ghproxy.com/https://raw.githubusercontent.com/qq925067429/freed/master/TVBox/MaooXB2/city电影.json"},
{"key":"csp_biubiu_尘落影院","name":"尘落影院(XB)","type":3,"api":"csp_XBiubiu","searchable":1,"quickSearch":1,"filterable":0,"ext":"https://ghproxy.com/https://raw.githubusercontent.com/qq925067429/freed/master/TVBox/MaooXB2/尘落影院.json"},
{"key":"csp_biubiu_爱看影视","name":"爱看影视(XB)","type":3,"api":"csp_XBiubiu","searchable":1,"quickSearch":1,"filterable":0,"ext":"https://ghproxy.com/https://raw.githubusercontent.com/qq925067429/freed/master/TVBox/MaooXB2/爱看影视.json"},
{"key":"csp_biubiu_视中心影院","name":"视中心影院(XB)","type":3,"api":"csp_XBiubiu","searchable":1,"quickSearch":1,"filterable":0,"ext":"https://ghproxy.com/https://raw.githubusercontent.com/qq925067429/freed/master/TVBox/MaooXB2/视中心影院.json"},
{"key":"csp_biubiu_红领巾","name":"红领巾(XB)","type":3,"api":"csp_XBiubiu","searchable":1,"quickSearch":1,"filterable":0,"ext":"https://ghproxy.com/https://raw.githubusercontent.com/qq925067429/freed/master/TVBox/MaooXB2/红领巾.json"},
{"key":"csp_biubiu_老电影","name":"老电影(XB)","type":3,"api":"csp_XBiubiu","searchable":1,"quickSearch":1,"filterable":0,"ext":"https://ghproxy.com/https://raw.githubusercontent.com/qq925067429/freed/master/TVBox/MaooXB2/老电影.json"},
{"key":"csp_xbb_555电影","name":"555电影","type":3,"api":"csp_XBiubiu","searchable":1,"quickSearch":1,"filterable":0,"ext":"https://raw.iqiq.io/liu673cn/box/main/sub/MeowXB/555电影.json"},
{"key":"csp_biubiu_555电影","name":"555电影(XB)","type":3,"api":"csp_XBiubiu","searchable":1,"quickSearch":1,"filterable":0,"ext":"https://ghproxy.com/https://raw.githubusercontent.com/qq925067429/freed/master/TVBox/MaooXB2/555电影.json"},
{"key":"csp_xpath_zxzj2","name":"在线之家(XPF)","type":3,"api":"csp_XPathFilter","searchable":1,"quickSearch":1,"filterable":1,"ext":"https://ghproxy.com/https://raw.githubusercontent.com/qq925067429/freed/master/TVBox/MaooXP/zxzj2.json"},
{"key":"csp_xpath_libv","name":"Libvio(XPF)","type":3,"api":"csp_XPathMacFilter","searchable":1,"quickSearch":1,"filterable":1,"ext":"https://ghproxy.com/https://raw.githubusercontent.com/qq925067429/freed/master/TVBox/MaooXP/libv.json"},
{"key":"csp_xpath_cokemv","name":"Cokemv(XPF)","type":3,"api":"csp_XPathFilter","searchable":1,"quickSearch":1,"filterable":1,"ext":"https://ghproxy.com/https://raw.githubusercontent.com/qq925067429/freed/master/TVBox/MaooXP/cokemv.json"},
{"key":"csp_xpath_ddg","name":"达达龟(XPF)","type":3,"api":"csp_XPathMacFilter","searchable":1,"quickSearch":1,"filterable":1,"ext":"https://ghproxy.com/https://raw.githubusercontent.com/qq925067429/freed/master/TVBox/MaooXP/dadagui.json"},
{"key":"csp_xpath_jbb","name":"剧白白(XPF)","type":3,"api":"csp_XPathMacFilter","searchable":1,"quickSearch":1,"filterable":1,"ext":"https://ghproxy.com/https://raw.githubusercontent.com/qq925067429/freed/master/TVBox/MaooXP/jubaibai.json"},
{"key":"csp_biubiu_特狗影视","name":"特狗影视(XB)","type":3,"api":"csp_XBiubiu","searchable":1,"quickSearch":1,"filterable":0,"ext":"https://ghproxy.com/https://raw.githubusercontent.com/qq925067429/freed/master/TVBox/MaooXB2/特狗影视.json"},
{"key":"csp_biubiu_F7好看剧","name":"F7好看剧(XB)","type":3,"api":"csp_XBiubiu","searchable":1,"quickSearch":1,"filterable":0,"ext":"https://ghproxy.com/https://raw.githubusercontent.com/qq925067429/freed/master/TVBox/MaooXB2/F7好看剧.json"},
{"key":"csp_biubiu_看片狂人","name":"看片狂人(XB)","type":3,"api":"csp_XBiubiu","searchable":1,"quickSearch":1,"filterable":0,"ext":"https://ghproxy.com/https://raw.githubusercontent.com/qq925067429/freed/master/TVBox/MaooXB2/看片狂人.json"},
{"key":"csp_biubiu_大米星球","name":"大米星球(XB)","type":3,"api":"csp_XBiubiu","searchable":1,"quickSearch":1,"filterable":0,"ext":"https://ghproxy.com/https://raw.githubusercontent.com/qq925067429/freed/master/TVBox/MaooXB2/大米星球.json"},
{"key":"csp_biubiu_87影院","name":"87影院(XB)","type":3,"api":"csp_XBiubiu","searchable":1,"quickSearch":1,"filterable":0,"ext":"https://ghproxy.com/https://raw.githubusercontent.com/qq925067429/freed/master/TVBox/MaooXB2/87影院.json"},
{"key":"csp_biubiu_干饭影视","name":"干饭影视(XB)","type":3,"api":"csp_XBiubiu","searchable":1,"quickSearch":1,"filterable":0,"ext":"https://ghproxy.com/https://raw.githubusercontent.com/qq925067429/freed/master/TVBox/MaooXB2/干饭影视.json"},
{"key":"csp_biubiu_OmoFun动漫","name":"OmoFun动漫(XB)","type":3,"api":"csp_XBiubiu","searchable":1,"quickSearch":1,"filterable":0,"ext":"https://ghproxy.com/https://raw.githubusercontent.com/qq925067429/freed/master/TVBox/MaooXB2/OmoFun动漫.json"},
{"key":"csp_biubiu_去看吧","name":"去看吧(XB)","type":3,"api":"csp_XBiubiu","searchable":1,"quickSearch":1,"filterable":0,"ext":"https://ghproxy.com/https://raw.githubusercontent.com/qq925067429/freed/master/TVBox/MaooXB2/去看吧.json"},
{"key":"csp_biubiu_风车动漫","name":"风车动漫(XB)","type":3,"api":"csp_XBiubiu","searchable":1,"quickSearch":1,"filterable":0,"ext":"https://ghproxy.com/https://raw.githubusercontent.com/qq925067429/freed/master/TVBox/MaooXB2/风车动漫.json"},
{"key":"csp_biubiu_打驴动漫","name":"打驴动漫(XB)","type":3,"api":"csp_XBiubiu","searchable":1,"quickSearch":1,"filterable":0,"ext":"https://ghproxy.com/https://raw.githubusercontent.com/qq925067429/freed/master/TVBox/MaooXB2/打驴动漫.json"},
{"key":"csp_biubiu_维奇动漫","name":"维奇动漫(XB)","type":3,"api":"csp_XBiubiu","searchable":1,"quickSearch":1,"filterable":0,"ext":"https://ghproxy.com/https://raw.githubusercontent.com/qq925067429/freed/master/TVBox/MaooXB2/维奇动漫.json"},
{"key":"csp_biubiu_真不卡影院(不支持搜索)","name":"真不卡影院(不支持搜索)(XB)","type":3,"api":"csp_XBiubiu","searchable":0,"quickSearch":0,"filterable":0,"ext":"https://ghproxy.com/https://raw.githubusercontent.com/qq925067429/freed/master/TVBox/MaooXB2/真不卡影院(不支持搜索).json"},
{"key":"csp_biubiu_奈落影院","name":"奈落影院(XB)","type":3,"api":"csp_XBiubiu","searchable":1,"quickSearch":1,"filterable":0,"ext":"https://ghproxy.com/https://raw.githubusercontent.com/qq925067429/freed/master/TVBox/MaooXB2/奈落影院.json"},
{"key":"csp_biubiu_小强迷","name":"小强迷(XB)","type":3,"api":"csp_XBiubiu","searchable":1,"quickSearch":1,"filterable":0,"ext":"https://ghproxy.com/https://raw.githubusercontent.com/qq925067429/freed/master/TVBox/MaooXB2/小强迷.json"},
{"key":"csp_biubiu_chok8电影","name":"chok8电影(XB)","type":3,"api":"csp_XBiubiu","searchable":1,"quickSearch":1,"filterable":0,"ext":"https://ghproxy.com/https://raw.githubusercontent.com/qq925067429/freed/master/TVBox/MaooXB2/chok8电影.json"},
{"key":"csp_biubiu_九州影视","name":"九州影视(XB)","type":3,"api":"csp_XBiubiu","searchable":1,"quickSearch":1,"filterable":0,"ext":"https://ghproxy.com/https://raw.githubusercontent.com/qq925067429/freed/master/TVBox/MaooXB2/九州影视.json"},
{"key":"csp_biubiu_乐猪影视","name":"乐猪影视(XB)","type":3,"api":"csp_XBiubiu","searchable":1,"quickSearch":1,"filterable":0,"ext":"https://ghproxy.com/https://raw.githubusercontent.com/qq925067429/freed/master/TVBox/MaooXB2/乐猪影视.json"},
{"key":"csp_biubiu_口袋影院","name":"口袋影院(XB)","type":3,"api":"csp_XBiubiu","searchable":1,"quickSearch":1,"filterable":0,"ext":"https://ghproxy.com/https://raw.githubusercontent.com/qq925067429/freed/master/TVBox/MaooXB2/口袋影院.json"},
{"key":"csp_biubiu_黑洞影视","name":"黑洞影视(XB)","type":3,"api":"csp_XBiubiu","searchable":1,"quickSearch":1,"filterable":0,"ext":"https://ghproxy.com/https://raw.githubusercontent.com/qq925067429/freed/master/TVBox/MaooXB2/黑洞影视.json"},
{"key":"csp_biubiu_北川影视","name":"北川影视(XB)","type":3,"api":"csp_XBiubiu","searchable":1,"quickSearch":1,"filterable":0,"ext":"https://ghproxy.com/https://raw.githubusercontent.com/qq925067429/freed/master/TVBox/MaooXB2/北川影视.json"},
{"key":"csp_biubiu_六度TV","name":"六度TV(XB)","type":3,"api":"csp_XBiubiu","searchable":1,"quickSearch":1,"filterable":0,"ext":"https://ghproxy.com/https://raw.githubusercontent.com/qq925067429/freed/master/TVBox/MaooXB2/六度TV.json"},
{"key":"csp_biubiu_双十电影","name":"双十电影(XB)","type":3,"api":"csp_XBiubiu","searchable":1,"quickSearch":1,"filterable":0,"ext":"https://ghproxy.com/https://raw.githubusercontent.com/qq925067429/freed/master/TVBox/MaooXB2/双十电影.json"},
{"key":"csp_biubiu_23影院","name":"23影院(XB)","type":3,"api":"csp_XBiubiu","searchable":1,"quickSearch":1,"filterable":0,"ext":"https://ghproxy.com/https://raw.githubusercontent.com/qq925067429/freed/master/TVBox/MaooXB2/23影院.json"},
{"key":"csp_biubiu_YYDS影院","name":"YYDS影院(XB)","type":3,"api":"csp_XBiubiu","searchable":1,"quickSearch":1,"filterable":0,"ext":"https://ghproxy.com/https://raw.githubusercontent.com/qq925067429/freed/master/TVBox/MaooXB2/YYDS影院.json"},
{"key":"csp_biubiu_如如影视","name":"如如影视(XB)","type":3,"api":"csp_XBiubiu","searchable":1,"quickSearch":1,"filterable":0,"ext":"https://ghproxy.com/https://raw.githubusercontent.com/qq925067429/freed/master/TVBox/MaooXB2/如如影视.json"},
{"key":"csp_biubiu_神马接口","name":"神马接口(XB)","type":3,"api":"csp_XBiubiu","searchable":1,"quickSearch":1,"filterable":0,"ext":"https://ghproxy.com/https://raw.githubusercontent.com/qq925067429/freed/master/TVBox/MaooXB2/神马接口.json"},
{"key":"csp_biubiu_火火影视","name":"火火影视(XB)","type":3,"api":"csp_XBiubiu","searchable":1,"quickSearch":1,"filterable":0,"ext":"https://ghproxy.com/https://raw.githubusercontent.com/qq925067429/freed/master/TVBox/MaooXB2/火火影视.json"},
{"key":"csp_biubiu_天空资源","name":"天空资源(XB)","type":3,"api":"csp_XBiubiu","searchable":1,"quickSearch":1,"filterable":0,"ext":"https://ghproxy.com/https://raw.githubusercontent.com/qq925067429/freed/master/TVBox/MaooXB2/天空资源.json"},
{"key":"csp_biubiu_神马影院","name":"神马影院(XB)","type":3,"api":"csp_XBiubiu","searchable":1,"quickSearch":1,"filterable":0,"ext":"https://ghproxy.com/https://raw.githubusercontent.com/qq925067429/freed/master/TVBox/MaooXB2/神马影院.json"},
{"key":"csp_biubiu_348电影网","name":"348电影网(XB)","type":3,"api":"csp_XBiubiu","searchable":1,"quickSearch":1,"filterable":0,"ext":"https://ghproxy.com/https://raw.githubusercontent.com/qq925067429/freed/master/TVBox/MaooXB2/348电影网.json"},
{"key":"csp_biubiu_1080Kkk","name":"1080Kkk(XB)","type":3,"api":"csp_XBiubiu","searchable":1,"quickSearch":1,"filterable":0,"ext":"https://ghproxy.com/https://raw.githubusercontent.com/qq925067429/freed/master/TVBox/MaooXB2/1080Kkk.json"},
{"key":"csp_biubiu_VIP1280","name":"VIP1280(XB)","type":3,"api":"csp_XBiubiu","searchable":1,"quickSearch":1,"filterable":0,"ext":"https://ghproxy.com/https://raw.githubusercontent.com/qq925067429/freed/master/TVBox/MaooXB2/VIP1280.json"},
{"key":"csp_biubiu_影视之光","name":"影视之光(XB)","type":3,"api":"csp_XBiubiu","searchable":1,"quickSearch":1,"filterable":0,"ext":"https://ghproxy.com/https://raw.githubusercontent.com/qq925067429/freed/master/TVBox/MaooXB2/影视之光.json"},
{"key":"csp_biubiu_创艺影视","name":"创艺影视(XB)","type":3,"api":"csp_XBiubiu","searchable":1,"quickSearch":1,"filterable":0,"ext":"https://ghproxy.com/https://raw.githubusercontent.com/qq925067429/freed/master/TVBox/MaooXB2/创艺影视.json"},
{"key":"csp_biubiu_炫猫影视","name":"炫猫影视(XB)","type":3,"api":"csp_XBiubiu","searchable":1,"quickSearch":1,"filterable":0,"ext":"https://ghproxy.com/https://raw.githubusercontent.com/qq925067429/freed/master/TVBox/MaooXB2/炫猫影视.json"},
{"key":"csp_biubiu_牛马TV","name":"牛马TV(XB)","type":3,"api":"csp_XBiubiu","searchable":1,"quickSearch":1,"filterable":0,"ext":"https://ghproxy.com/https://raw.githubusercontent.com/qq925067429/freed/master/TVBox/MaooXB2/牛马TV.json"},
{"key":"csp_biubiu_飘花播播","name":"飘花播播(XB)","type":3,"api":"csp_XBiubiu","searchable":1,"quickSearch":1,"filterable":0,"ext":"https://ghproxy.com/https://raw.githubusercontent.com/qq925067429/freed/master/TVBox/MaooXB2/飘花播播.json"},
{"key":"csp_biubiu_豆角网","name":"豆角网(XB)","type":3,"api":"csp_XBiubiu","searchable":1,"quickSearch":1,"filterable":0,"ext":"https://ghproxy.com/https://raw.githubusercontent.com/qq925067429/freed/master/TVBox/MaooXB2/豆角网.json"},
{"key":"csp_biubiu_稀饭影视","name":"稀饭影视(XB)","type":3,"api":"csp_XBiubiu","searchable":1,"quickSearch":1,"filterable":0,"ext":"https://ghproxy.com/https://raw.githubusercontent.com/qq925067429/freed/master/TVBox/MaooXB2/稀饭影视.json"},
{"key":"csp_biubiu_开心果电影网","name":"开心果电影网(XB)","type":3,"api":"csp_XBiubiu","searchable":1,"quickSearch":1,"filterable":0,"ext":"https://ghproxy.com/https://raw.githubusercontent.com/qq925067429/freed/master/TVBox/MaooXB2/开心果电影网.json"},
{"key":"csp_biubiu_悟空影视","name":"悟空影视(XB)","type":3,"api":"csp_XBiubiu","searchable":1,"quickSearch":1,"filterable":0,"ext":"https://ghproxy.com/https://raw.githubusercontent.com/qq925067429/freed/master/TVBox/MaooXB2/悟空影视.json"},

## XPath系列

{"key":"csp_xpath_lranc","name":"天天影视(XPF)","type":3,"api":"csp_XPathMacFilter","searchable":1,"quickSearch":1,"filterable":1,"ext":"https://ghproxy.com/https://raw.githubusercontent.com/qq925067429/freed/master/TVBox/MaooXP/lranc.json"},
{"key":"csp_xpath_Gimy","name":"GIMY影视(XPF)","type":3,"api":"csp_XPathMacFilter","searchable":0,"quickSearch":0,"filterable":1,"ext":"https://ghproxy.com/https://raw.githubusercontent.com/qq925067429/freed/master/TVBox/MaooXP/Gimy.json"},
{"key":"csp_xpath_Gimy2","name":"GimyTV(XPF)","type":3,"api":"csp_XPathMacFilter","searchable":0,"quickSearch":0,"filterable":1,"ext":"https://ghproxy.com/https://raw.githubusercontent.com/qq925067429/freed/master/TVBox/MaooXP/Gimy2.json"},
{"key":"csp_xpath_ttsp","name":"天天视频(XPF)","type":3,"api":"csp_XPathMacFilter","searchable":0,"quickSearch":0,"filterable":1,"ext":"https://ghproxy.com/https://raw.githubusercontent.com/qq925067429/freed/master/TVBox/MaooXP/ttsp.json"},
{"key":"csp_xpath_789kp","name":"789看片(XPF)","type":3,"api":"csp_XPathMacFilter","searchable":1,"quickSearch":1,"filterable":1,"ext":"https://ghproxy.com/https://raw.githubusercontent.com/qq925067429/freed/master/TVBox/MaooXP/789kp.json"},
{"key":"csp_xpath_6d","name":"六度TV(XPF)","type":3,"api":"csp_XPathFilter","searchable":1,"quickSearch":1,"filterable":1,"ext":"https://ghproxy.com/https://raw.githubusercontent.com/qq925067429/freed/master/TVBox/MaooXP/6d.json"},
{"key":"csp_xpath_ysjdm","name":"异世界动漫(XPF)","type":3,"api":"csp_XPathMacFilter","searchable":1,"quickSearch":1,"filterable":1,"ext":"https://ghproxy.com/https://raw.githubusercontent.com/qq925067429/freed/master/TVBox/MaooXP/ysjdm.json"},
{"key":"csp_xpath_dandanzan10","name":"蛋蛋赞(电影)(XPF)","type":3,"api":"csp_XPathFilter","searchable":0,"quickSearch":0,"filterable":1,"ext":"https://ghproxy.com/https://raw.githubusercontent.com/qq925067429/freed/master/TVBox/MaooXP/dandanzan10.json"},
{"key":"csp_xpath_dm84","name":"动漫巴士(XP)","type":3,"api":"csp_XPathFilter","searchable":1,"quickSearch":1,"filterable":0,"ext":"https://ghproxy.com/https://raw.githubusercontent.com/qq925067429/freed/master/TVBox/MaooXP/dm84.json"},
{"key":"csp_xpath_17skr","name":"路漫漫动漫(XP)","type":3,"api":"csp_XPath","searchable":1,"quickSearch":1,"filterable":0,"ext":"https://ghproxy.com/https://raw.githubusercontent.com/qq925067429/freed/master/TVBox/MaooXP/17skr.json"},
{"key":"csp_xpath_bttwoo","name":"两个BT(XP)","type":3,"api":"csp_XPath","searchable":0,"quickSearch":0,"filterable":0,"ext":"https://ghproxy.com/https://raw.githubusercontent.com/qq925067429/freed/master/TVBox/MaooXP/bttwoo.json"},
{"key":"csp_xpath_wanmeikk","name":"完美看看(XP)","type":3,"api":"csp_XPathMac","searchable":1,"quickSearch":1,"filterable":0,"ext":"https://ghproxy.com/https://raw.githubusercontent.com/qq925067429/freed/master/TVBox/MaooXP/wanmeikk.json"},
{"key":"csp_xpath_saohuotv","name":"骚火电影(XP)","type":3,"api":"csp_XPath","searchable":1,"quickSearch":1,"filterable":0,"ext":"https://ghproxy.com/https://raw.githubusercontent.com/qq925067429/freed/master/TVBox/MaooXP/saohuotv2.json"},
{"key":"csp_xpath_lezhutv","name":"乐猪TV(XPMac)","type":3,"api":"csp_XPathMac","searchable":1,"quickSearch":1,"filterable":0,"ext":"https://ghproxy.com/https://raw.githubusercontent.com/qq925067429/freed/master/TVBox/MaooXP/lezhutv.json"},
{"key":"csp_xpath_zaixiandianying8","name":"在线电影(XP)","type":3,"api":"csp_XPath","searchable":1,"quickSearch":1,"filterable":0,"ext":"https://ghproxy.com/https://raw.githubusercontent.com/qq925067429/freed/master/TVBox/MaooXP/zaixiandianying8.json"},
{"key":"csp_xpath_zzzlike","name":"周末电影(XP)","type":3,"api":"csp_XPath","searchable":1,"quickSearch":1,"filterable":0,"ext":"https://ghproxy.com/https://raw.githubusercontent.com/qq925067429/freed/master/TVBox/MaooXP/zzzlike.json"},
{"key":"csp_xpath_135kan","name":"135看看(XP)","type":3,"api":"csp_XPath","searchable":1,"quickSearch":1,"filterable":0,"ext":"https://ghproxy.com/https://raw.githubusercontent.com/qq925067429/freed/master/TVBox/MaooXP/135kan.json"},
{"key":"csp_xpath_xfeiji","name":"小小影视(XP)","type":3,"api":"csp_XPath","searchable":1,"quickSearch":1,"filterable":0,"ext":"https://ghproxy.com/https://raw.githubusercontent.com/qq925067429/freed/master/TVBox/MaooXP/xfeiji.json"},
{"key":"csp_xpath_osx3","name":"达达兔(XP)","type":3,"api":"csp_XPath","searchable":1,"quickSearch":1,"filterable":0,"ext":"https://ghproxy.com/https://raw.githubusercontent.com/qq925067429/freed/master/TVBox/MaooXP/osx3.json"},
{"key":"csp_xpath_pianku","name":"片库(XP)","type":3,"api":"csp_XPath","searchable":1,"quickSearch":1,"filterable":0,"ext":"https://ghproxy.com/https://raw.githubusercontent.com/qq925067429/freed/master/TVBox/MaooXP/pianku.json"},
{"key":"csp_xpath_dianyingn","name":"电影牛(XP)","type":3,"api":"csp_XPath","searchable":1,"quickSearch":1,"filterable":0,"ext":"https://ghproxy.com/https://raw.githubusercontent.com/qq925067429/freed/master/TVBox/MaooXP/dianyingn.json"},
{"key":"csp_xpath_newfii","name":"奈落影院(XP)","type":3,"api":"csp_XPath","searchable":1,"quickSearch":1,"filterable":0,"ext":"https://ghproxy.com/https://raw.githubusercontent.com/qq925067429/freed/master/TVBox/MaooXP/newfii.json"},
{"key":"csp_xpath_dym8","name":"电影迷(XP)","type":3,"api":"csp_XPath","searchable":1,"quickSearch":1,"filterable":0,"ext":"https://ghproxy.com/https://raw.githubusercontent.com/qq925067429/freed/master/TVBox/MaooXP/dym8.json"},
{"key":"csp_xpath_xuangz","name":"尘落电影(XP)","type":3,"api":"csp_XPath","searchable":1,"quickSearch":1,"filterable":0,"ext":"https://ghproxy.com/https://raw.githubusercontent.com/qq925067429/freed/master/TVBox/MaooXP/xuangz.json"},
{"key":"csp_xpath_qdytv","name":"米来影视(XP)","type":3,"api":"csp_XPath","searchable":1,"quickSearch":1,"filterable":0,"ext":"https://ghproxy.com/https://raw.githubusercontent.com/qq925067429/freed/master/TVBox/MaooXP/qdytv.json"},
{"key":"csp_xpath_dingzidy","name":"钉子电影(XP)","type":3,"api":"csp_XPath","searchable":1,"quickSearch":1,"filterable":0,"ext":"https://ghproxy.com/https://raw.githubusercontent.com/qq925067429/freed/master/TVBox/MaooXP/dingzidy.json"},
{"key":"csp_xpath_paopaoshipin","name":"泡泡视频(XP)","type":3,"api":"csp_XPath","searchable":1,"quickSearch":1,"filterable":0,"ext":"https://ghproxy.com/https://raw.githubusercontent.com/qq925067429/freed/master/TVBox/MaooXP/paopaoshipin.json"},
{"key":"csp_xpath_rttks","name":"人人影视(XP)","type":3,"api":"csp_XPath","searchable":1,"quickSearch":1,"filterable":0,"ext":"https://ghproxy.com/https://raw.githubusercontent.com/qq925067429/freed/master/TVBox/MaooXP/rttks.json"},
{"key":"csp_xpath_ikan6","name":"爱看影视(XP)","type":3,"api":"csp_XPath","searchable":1,"quickSearch":1,"filterable":0,"ext":"https://ghproxy.com/https://raw.githubusercontent.com/qq925067429/freed/master/TVBox/MaooXP/ikan6.json"},
{"key":"csp_xpath_akmeiju","name":"爱看美剧(XP)","type":3,"api":"csp_XPath","searchable":1,"quickSearch":1,"filterable":0,"ext":"https://ghproxy.com/https://raw.githubusercontent.com/qq925067429/freed/master/TVBox/MaooXP/akmeiju.json"},
{"key":"csp_xpath_hiyszx","name":"影视在线(XP)","type":3,"api":"csp_XPath","searchable":1,"quickSearch":1,"filterable":0,"ext":"https://ghproxy.com/https://raw.githubusercontent.com/qq925067429/freed/master/TVBox/MaooXP/hiyszx.json"},
{"key":"csp_xpath_xqmi","name":"小强迷(XP)","type":3,"api":"csp_XPath","searchable":1,"quickSearch":1,"filterable":0,"ext":"https://ghproxy.com/https://raw.githubusercontent.com/qq925067429/freed/master/TVBox/MaooXP/xqmi.json"},
{"key":"csp_xpath_vip1280","name":"VIP电影(XP)","type":3,"api":"csp_XPath","searchable":1,"quickSearch":1,"filterable":0,"ext":"https://ghproxy.com/https://raw.githubusercontent.com/qq925067429/freed/master/TVBox/MaooXP/vip1280.json"},
{"key":"csp_xpath_tjyy","name":"奇优影院(XP)","type":3,"api":"csp_XPathMac","searchable":1,"quickSearch":1,"filterable":0,"ext":"https://ghproxy.com/https://raw.githubusercontent.com/qq925067429/freed/master/TVBox/MaooXP/huigutongying.json"},
{"key":"csp_xpath_juhuang","name":"剧荒TV(XPMac)","type":3,"api":"csp_XPathMac","searchable":1,"quickSearch":1,"filterable":0,"ext":"https://ghproxy.com/https://raw.githubusercontent.com/qq925067429/freed/master/TVBox/MaooXP/juhuang.json"},
{"key":"csp_xpath_doujiaow","name":"豆角网(XP)","type":3,"api":"csp_XPathMac","searchable":1,"quickSearch":1,"filterable":0,"ext":"https://ghproxy.com/https://raw.githubusercontent.com/qq925067429/freed/master/TVBox/MaooXP/doujiaow.json"},
{"key":"csp_xpath_dy888","name":"电影888(XP)","type":3,"api":"csp_XPathMac","searchable":1,"quickSearch":1,"filterable":0,"ext":"https://ghproxy.com/https://raw.githubusercontent.com/qq925067429/freed/master/TVBox/MaooXP/dy888.json"},
{"key":"csp_xpath_yyotv","name":"小太阳(XP)","type":3,"api":"csp_XPath","searchable":1,"quickSearch":1,"filterable":0,"ext":"https://ghproxy.com/https://raw.githubusercontent.com/qq925067429/freed/master/TVBox/MaooXP/yyotv.json"},
{"key":"csp_xpath_jiujiukanpian","name":"久久影视(XP)","type":3,"api":"csp_XPath","searchable":1,"quickSearch":1,"filterable":0,"ext":"https://ghproxy.com/https://raw.githubusercontent.com/qq925067429/freed/master/TVBox/MaooXP/jiujiukanpian.josn"},
{"key":"csp_xpath_aidi","name":"爱迪影视(XPMac)","type":3,"api":"csp_XPathMac","searchable":1,"quickSearch":1,"filterable":0,"ext":"https://ghproxy.com/https://raw.githubusercontent.com/qq925067429/freed/master/TVBox/MaooXP/aidi.json"},
{"key":"csp_xpath_pianba","name":"片吧影院(XPMac)","type":3,"api":"csp_XPathMac","searchable":1,"quickSearch":1,"filterable":0,"ext":"https://ghproxy.com/https://raw.githubusercontent.com/qq925067429/freed/master/TVBox/MaooXP/pianba.json"},
{"key":"csp_xpath_duboku","name":"独播库(XPMac)","type":3,"api":"csp_XPathMac","searchable":1,"quickSearch":1,"filterable":0,"ext":"https://ghproxy.com/https://raw.githubusercontent.com/qq925067429/freed/master/TVBox/MaooXP/duboku2.json"},
{"key":"csp_xpath_94sm","name":"94神马(XP)","type":3,"api":"csp_XPath","searchable":1,"quickSearch":1,"filterable":0,"ext":"https://ghproxy.com/https://raw.githubusercontent.com/qq925067429/freed/master/TVBox/MaooXP/94sm.json"},
{"key":"csp_xpath_zj883","name":"追剧网(XP)","type":3,"api":"csp_XPath","searchable":1,"quickSearch":1,"filterable":0,"ext":"https://ghproxy.com/https://raw.githubusercontent.com/qq925067429/freed/master/TVBox/MaooXP/zj883.json"},
{"key":"csp_xpath_cerrd","name":"真不卡影院(XP)","type":3,"api":"csp_XPath","searchable":1,"quickSearch":1,"filterable":0,"ext":"https://ghproxy.com/https://raw.githubusercontent.com/qq925067429/freed/master/TVBox/MaooXP/cerrd.json"},
{"key":"csp_xpath_so2","name":"淘剧鸭(XP)","type":3,"api":"csp_XPath","searchable":1,"quickSearch":1,"filterable":0,"ext":"https://ghproxy.com/https://raw.githubusercontent.com/qq925067429/freed/master/TVBox/MaooXP/so2.json"},

{"key":"csp_xbb_乐猪影视","name":"🍀乐猪影视","type":3,"api":"csp_XBiubiu","searchable":1,"quickSearch":1,"filterable":0,"ext":"https://raw.iqiq.io/liu673cn/box/main/sub/MeowXB/乐猪影视.json"},
{"key":"csp_xbb_影视之光","name":"🍀影视之光","type":3,"api":"csp_XBiubiu","searchable":1,"quickSearch":1,"filterable":0,"ext":"https://raw.iqiq.io/liu673cn/box/main/sub/MeowXB/影视之光.json"},
{"key":"csp_xbb_555电影","name":"🍀555电影","type":3,"api":"csp_XBiubiu","searchable":1,"quickSearch":1,"filterable":0,"ext":"https://raw.iqiq.io/liu673cn/box/main/sub/MeowXB/555电影.json"},
{"key":"csp_xbb_酷云影院","name":"🍀酷云影院","type":3,"api":"csp_XBiubiu","searchable":1,"quickSearch":1,"filterable":0,"ext":"https://raw.iqiq.io/liu673cn/box/main/sub/MeowXB/酷云影院.json"},
{"key":"csp_xbb_茶杯狐","name":"🍀茶杯狐","type":3,"api":"csp_XBiubiu","searchable":1,"quickSearch":1,"filterable":0,"ext":"https://raw.iqiq.io/liu673cn/box/main/sub/MeowXB/茶杯狐.json"},
{"key":"csp_xbb_sobods","name":"🍀真不卡sobods","type":3,"api":"csp_XBiubiu","searchable":1,"quickSearch":1,"filterable":0,"ext":"https://raw.iqiq.io/liu673cn/box/main/sub/MeowXB/真不卡sobods.json"},
{"key":"csp_xbb_zbkyy2","name":"🍀真不卡影院","type":3,"api":"csp_XBiubiu","searchable":1,"quickSearch":1,"filterable":0,"ext":"https://raw.iqiq.io/liu673cn/box/main/sub/MeowXB/真不卡zbkyy2.json"},
{"key":"csp_xbb_饭团HD","name":"🍀饭团HD","type":3,"api":"csp_XBiubiu","searchable":1,"quickSearch":1,"filterable":0,"ext":"https://raw.iqiq.io/liu673cn/box/main/sub/MeowXB/饭团HD.json"},
{"key":"csp_xbb_voflix","name":"🍀Voflix HD","type":3,"api":"csp_XBiubiu","searchable":1,"quickSearch":1,"filterable":0,"ext":"https://raw.iqiq.io/liu673cn/box/main/sub/MeowXB/voflix.json"},
{"key":"csp_xbb_黑狐影视ns","name":"🍀黑狐影视(NS)","type":3,"api":"csp_XBiubiu","searchable":1,"quickSearch":1,"filterable":0,"ext":"https://raw.iqiq.io/liu673cn/box/main/sub/MeowXB/黑狐影视ns.json"},
{"key":"csp_xbb_Nike影视","name":"🍀Nike影视","type":3,"api":"csp_XBiubiu","searchable":1,"quickSearch":1,"filterable":0,"ext":"https://raw.iqiq.io/liu673cn/box/main/sub/MeowXB/Nike影视网.json"},
{"key":"csp_xp_agemys","name":"💢AGE动漫","type":3,"api":"csp_XPath","searchable":1,"quickSearch":1,"filterable":0,"ext":"https://raw.iqiq.io/liu673cn/box/main/sub/MeowXP/agemys.json"},
{"key":"csp_xp_dm84","name":"💢动漫巴士","type":3,"api":"csp_XPathFilter","searchable":1,"quickSearch":1,"filterable":0,"ext":"https://raw.iqiq.io/liu673cn/box/main/sub/MeowXP/dm84.json"},
{"key":"csp_xp_yinghua","name":"💢樱花动漫","type":3,"api":"csp_XPath","searchable":1,"quickSearch":1,"filterable":0,"ext":"https://raw.iqiq.io/liu673cn/box/main/sub/MeowXP/yinghua.json"},
{"key":"csp_xp_dmw","name":"💢动漫岛","type":3,"api":"csp_XPathMacFilter","searchable":1,"quickSearch":1,"filterable":1,"ext":"https://raw.iqiq.io/liu673cn/box/main/sub/MeowXP/dmw.json"},
{"key":"csp_xp_omofun","name": "💢omofun日漫","type": 3,"api": "csp_XPathMacFilter","searchable": 1,"quickSearch": 1,"filterable": 1,"ext": "https://raw.iqiq.io/liu673cn/box/main/sub/MeowXP/omofun.json"},
{"key":"csp_xp_bttwoo","name":"💢两个BT","type":3,"api":"csp_XPath","searchable":0,"quickSearch":0,"filterable":0,"ext":"https://raw.iqiq.io/liu673cn/box/main/sub/MeowXP/bttwoo.json"},
{"key":"csp_xp_libv","name":"💢Libvio","type":3,"api":"csp_XPathMacFilter","searchable":1,"quickSearch":1,"filterable":1,"ext":"https://raw.iqiq.io/liu673cn/box/main/sub/MeowXP/libv.json"},
{"key":"csp_xp_zxzj2","name":"💢在线之家","type":3,"api":"csp_XPathFilter","searchable":1,"quickSearch":1,"filterable":1,"ext":"https://raw.iqiq.io/liu673cn/box/main/sub/MeowXP/zxzj2.json"},
{"key":"csp_xp_wmkankan","name":"💢完美看看","type":3,"api":"csp_XPathMacFilter","searchable":1,"quickSearch":1,"filterable":1,"ext":"https://raw.iqiq.io/liu673cn/box/main/sub/MeowXP/wmkankan.json"},
{"key":"csp_xp_cokemv","name":"💢Cokemv","type":3,"api":"csp_XPathFilter","searchable":1,"quickSearch":1,"filterable":1,"ext":"https://raw.iqiq.io/liu673cn/box/main/sub/MeowXP/cokemv.json"},
{"key":"csp_xp_jLgyy","name":"💢蓝光影院","type":3,"api":"csp_XPathFilter","searchable":1,"quickSearch":1,"filterable":1,"ext":"https://raw.iqiq.io/liu673cn/box/main/sub/MeowXP/lgyy.json"},
{"key":"csp_xp_nmys","name":"💢农民影视","type": 3,"api":"csp_XPathFilter","searchable":1,"quickSearch":1,"filterable":1,"ext":"https://raw.iqiq.io/liu673cn/box/main/sub/MeowXP/nmys2.json"},
{"key":"csp_xp_gongreng","name":"💢工人影视","type":3,"api":"csp_XPathMacFilter","searchable":1,"quickSearch":1,"filterable":1,"ext":"https://raw.iqiq.io/liu673cn/box/main/sub/MeowXP/gongreng.json"},
{"key":"csp_xp_jpys","name":"💢极品影视","type":3,"api":"csp_XPathMacFilter","searchable":1,"quickSearch":1,"filterable":1,"ext":"https://raw.iqiq.io/liu673cn/box/main/sub/MeowXP/jpys.json"},
{"key":"csp_xp_vip1280","name":"💢VIP电影","type":3,"api":"csp_XPath","searchable":1,"quickSearch":1,"filterable":0,"ext":"https://raw.iqiq.io/liu673cn/box/main/sub/MeowXP/vip1280.json"},
{"key":"csp_xp_Gimy","name": "💢Gimy影院","type": 3,"api": "csp_XPathMacFilter","searchable": 1,"quickSearch": 1,"filterable": 1,"ext": "https://raw.iqiq.io/liu673cn/box/main/sub/MeowXP/Gimy2.json"},
{"key":"csp_xp_lezhutv","name":"💢乐猪TV","type":3,"api":"csp_XPathMac","searchable":1,"quickSearch":1,"filterable":0,"ext":"https://raw.iqiq.io/liu673cn/box/main/sub/MeowXP/lezhutv.json"},
{"key":"csp_xp_ddg","name":"💢达达龟","type":3,"api":"csp_XPathMacFilter","searchable":1,"quickSearch":1,"filterable":1,"ext":"https://raw.iqiq.io/liu673cn/box/main/sub/MeowXP/dadagui.json"},
{"key":"csp_xp_jbb","name":"💢剧白白","type":3,"api":"csp_XPathMacFilter","searchable":1,"quickSearch":1,"filterable":1,"ext":"https://raw.iqiq.io/liu673cn/box/main/sub/MeowXP/jubaibai.json"},
{"key":"csp_xp_saohuo","name":"💢骚火电影","type":3,"api":"csp_XPath","searchable":1,"quickSearch":1,"filterable":0,"ext":"https://raw.iqiq.io/liu673cn/box/main/sub/MeowXP/saohuotv.json"},
{"key":"csp_xp_xqmi","name":"💢小 强 迷","type":3,"api":"csp_XPath","searchable":1,"quickSearch":1,"filterable":0,"ext":"https://raw.iqiq.io/liu673cn/box/main/sub/MeowXP/xqmi.json"},
{"key":"csp_xp_doujiao","name":"💢豆角影视","type": 3,"api": "csp_XPath","searchable": 1,"quickSearch": 1,"filterable": 1,"ext": "https://raw.iqiq.io/liu673cn/box/main/sub/MeowXP/doujiao.json"},
{"key":"csp_xp_99ys","name":"💢久久影视","type": 3,"api": "csp_XPath","searchable": 1,"quickSearch": 1,"filterable": 0,"ext": "https://raw.iqiq.io/liu673cn/box/main/sub/MeowXP/99ys.json"},
{"key":"csp_xp_789kp","name":"💢789看片","type":3,"api":"csp_XPathMacFilter","searchable":1,"quickSearch":1,"filterable":1,"ext":"https://raw.iqiq.io/liu673cn/box/main/sub/MeowXP/789kp.json"},
{"key":"csp_xp_wnvod","name": "💢万能影视","type": 3,"api":"csp_XPathFilter","searchable": 1,"quickSearch": 1,"filterable":0,"ext":"https://raw.iqiq.io/liu673cn/box/main/sub/MeowXP//wnvod.json"},
{"key":"csp_xp_kyikan","name": "💢看一看","type": 3,"api":"csp_XPath","searchable": 1,"quickSearch": 1,"filterable":0,"ext":"https://raw.iqiq.io/liu673cn/box/main/sub/MeowXP/kyikan.json"},
{"key":"csp_xp_zj883","name":"💢追剧网","type":3,"api":"csp_XPath","searchable":1,"quickSearch":1,"filterable":0,"ext":"https://raw.iqiq.io/liu673cn/box/main/sub/MeowXP/zj883.json"},
{"key":"csp_xp_lkvod","name":"💢耐看点播","type":3,"api":"csp_XPath","searchable":1,"quickSearch":1,"filterable":0,"ext":"https://raw.iqiq.io/liu673cn/box/main/sub/MeowXP/lkvod2.json"},
{"key":"csp_xp_6d","name":"💢六度TV","type":3,"api":"csp_XPathFilter","searchable":1,"quickSearch":1,"filterable":1,"ext":"https://raw.iqiq.io/liu673cn/box/main/sub/MeowXP/6d.json"},
{"key":"csp_xp_348z","name":"💢348电影","type":3,"api":"csp_XPathFilter","searchable":1,"quickSearch":1,"filterable":1,"ext":"https://raw.iqiq.io/liu673cn/box/main/sub/MeowXP/348z.json"},
{"key":"csp_xp_dandanzan10","name":"💢蛋蛋赞","type":3,"api":"csp_XPathFilter","searchable":0,"quickSearch":0,"filterable":1,"ext":"https://raw.iqiq.io/liu673cn/box/main/sub/MeowXP/dandanzan10.json"},
{"key":"csp_xp_meiju56","name":"💢美剧网","type":3,"api":"csp_XPathFilter","searchable":1,"quickSearch":1,"filterable":1,"ext":"https://raw.iqiq.io/liu673cn/box/main/sub/MeowXP/meiju562.json"},
{"key":"csp_xp_tjyy","name":"💢奇优影院","type":3,"api":"csp_XPathMac","searchable":1,"quickSearch":1,"filterable":0,"ext":"https://raw.iqiq.io/liu673cn/box/main/sub/MeowXP/huigutongying.json"},
{"key":"csp_xp_dy888","name":"💢电影888","type":3,"api":"csp_XPathMac","searchable":1,"quickSearch":1,"filterable":0,"ext":"https://raw.iqiq.io/liu673cn/box/main/sub/MeowXP/dy888.json"},
{"key":"csp_xp_juhuang","name":"💢剧荒TV","type":3,"api":"csp_XPathMac","searchable":1,"quickSearch":1,"filterable":0,"ext":"https://raw.iqiq.io/liu673cn/box/main/sub/MeowXP/juhuang.json"},
{"key":"csp_xp_ttsp","name":"💢天天视频","type":3,"api":"csp_XPathMacFilter","searchable":0,"quickSearch":0,"filterable":1,"ext":"https://raw.iqiq.io/liu673cn/box/main/sub/MeowXP/ttsp.json"},
{"key":"csp_xp_Jumi","name":"💢剧迷TV","type":3,"api":"csp_XPathMacFilter","searchable":1,"quickSearch":1,"filterable":1,"ext":"https://raw.iqiq.io/liu673cn/box/main/sub/MeowXP/Jumi.json"},
{"key":"csp_xp_lranc","name":"💢天天影视","type":3,"api":"csp_XPathMacFilter","searchable":1,"quickSearch":1,"filterable":1,"ext":"https://raw.iqiq.io/liu673cn/box/main/sub/MeowXP/lranc.json"},
{"key":"csp_xp_dmntv","name":"💢弹幕影院","type":3,"api":"csp_XPathMacFilter","searchable":1,"quickSearch":1,"filterable":1,"ext":"https://raw.iqiq.io/liu673cn/box/main/sub/MeowXP/dmntv.json"},
{"key":"csp_xp_bdys01","name":"💢哔滴影视(磁)","type":3,"api":"csp_XPath","searchable":1,"quickSearch":1,"filterable":1,"ext":"https://raw.iqiq.io/liu673cn/box/main/sub/MeowXP/bdys01.json"},
{"key":"csp_xp_qiumi","name":"💢球迷看球","type":3,"api":"csp_XPathFilter","searchable":1,"quickSearch":1,"filterable":1,"ext":"https://raw.iqiq.io/liu673cn/box/main/sub/MeowXP/qiumi.json"},
{"key":"csp_xp_bidiys","name":"💢Bidi影视","type":3,"api":"csp_XPathMacFilter","searchable":1,"quickSearch":1,"filterable":1,"ext":"https://raw.iqiq.io/liu673cn/box/main/sub/MeowXP/bidiys2.json"},
{"key":"csp_xp_mozhatu","name":"💢莫扎兔","type":3,"api":"csp_XPath","searchable":1,"quickSearch":1,"filterable":1,"ext":"https://raw.iqiq.io/liu673cn/box/main/sub/MeowXP/mozhatu.json"},
{"key":"csp_xp_yingba","name":"💢电影吧","type":3,"api":"csp_XPath","searchable":1,"quickSearch":1,"filterable":1,"ext":"https://raw.iqiq.io/liu673cn/box/main/sub/MeowXP/yingba.json"},
{"key":"csp_xp_dingzidy","name":"💢钉子电影","type":3,"api":"csp_XPath","searchable":1,"quickSearch":1,"filterable":1,"ext":"https://raw.iqiq.io/liu673cn/box/main/sub/MeowXP/dingzidy.json"},
{"key":"快播资源"     ,"name":"快播资源(切)","type":1,"api":"http://www.kuaibozy.com/api.php/provide/vod/","searchable":1,"quickSearch":1}
],
"lives":[{"group":"redirect","channels":[{"name":"redirect","urls":["proxy://do=live&type=txt&ext=https://gitea.com/Pandora2277/Box/raw/branch/master/sub/Live.txt"]}]}],
"parses":[
{"name":"解析聚合","type":3,"url":"Demo"},
{"name":"Json并发","type":2,"url":"Parallel"},
{"name":"Json轮询","type":2,"url":"Sequence"},
{"name":"fuqi","type":1,"url":"https://play.fuqizhishi.com/maotv/API.php?appkey=xiongdimenbieguaiwodingbuzhulegailekey07201538&url="},
{"name":"盘古","type":0,"url":"https://www.m3u8.tv.cdn.8old.cn/jx.php?url="},
{"name":"优众1","type":1,"url":"http://121.205.88.178:8090/jmzyjx/yzapp/?url="},
{"name":"优众2","type":1,"url":"https://jx.dgdgg.cn/api/?key=Os908eQBVXCwdvBlI7&url="},
{"name":"优众3","type":1,"url":"http://jx.yjhan.com:8090/home/api?type=ys&uid=94229&key=abefilmrxAGHNPX356&url="},
{"name":"优众4","type":1,"url":"http://jx1920.chwain.com/home/api?type=ys&uid=87711&key=bdrsuvzBMQTVWX0567&url="},
{"name":"优众5","type":1,"url":"https://jisu.rongxingvr.top/api/?key=2eCcARLRUqfPeuoX3B&url="},
{"name":"优众6","type":1,"url":"http://110.42.2.115:880/analysis/json/?uid=2288&my=cilnvzELRTVWX03456&url="},
{"name":"优众7","type":1,"url":"http://121.205.88.178:8090/jmzyjx/mgapp/?url="},
{"name":"优众8","type":1,"url":"http://121.205.88.178:8090/jmzyjx/yzapp/?url="},
{"name":"优众9","type":1,"url":"http://jx1920.chwain.com/home/api?type=ys&uid=87711&key=bdrsuvzBMQTVWX0567&url="},
{"name":"左岸","type":1,"url":"http://110.42.2.115:880/analysis/json/?uid=2100&my=fgjnoqstLMRUZ03489&url=","ext":{"flag":["qq","qiyi","mgtv","youku","letv","sohu","xigua","1905","优播线路","腾播线路"],"header":{"User-Agent":"Dart/2.14 (dart:io)"}}},
{ "name":"太空", "type": 1, "url": "http://124.222.68.182/jiexi/4kJX.php/?url=", "ext": { "flag": [ "qq", "腾讯", "qiyi", "爱奇艺", "奇艺", "youku", "优酷", "sohu", "搜狐", "letv", "乐视", "mgtv", "芒果", "CL4K", "renrenmi", "ltnb", "bilibili", "1905", "xigua" ] } },
{"name":"未知","type":1,"url":"http://106.52.218.221:88/?url=","ext":{"flag":["qq","腾讯","qiyi","爱奇艺","奇艺","youku","优酷","mgtv","芒果","letv","乐视","pptv","PPTV","sohu","bilibili","哔哩哔哩","哔哩"]}},
{"name":"随便1","type":1,"url":"http://cl.yjhan.com:8090/home/api?type=ys&uid=821518&key=aghlmnyBFIJMPRX489&url="},
{"name":"随便2","type":1,"url":"https://www.nfjx.xyz/home/api?type=ys&uid=5767995&key=ijkmovxDEHIJPQRW69&url="},
{"name":"普通","type":0,"url":"https://jhpc.021huaying.com/api.php?url="},
{"name":"LTRX","type":1,"url":"https://svip.spchat.top/api/?type=ys&key=bKemW41JnxmQb4l67h&url=","ext":{"flag":["rx"]}},
{"name":"OJBK","type":0,"url":"https://jmwl.qd234.cn/v/?v=","ext":{"flag":["ltnb","renrenmi","rx","xfyun","muxm3u8","xigua","xueren","qq","腾讯","qiyi","爱奇艺","奇艺","youku","优酷","mgtv","芒果","bilibili","哔哩哔哩","哔哩","pptv","PPTV","sohu","letv"]}},
{"name":"parwix1","type":0,"url":"https://jx.parwix.com:4433/player/?url=","ext":{"flag":["qq","腾讯","qiyi","爱奇艺","奇艺","youku","优酷","mgtv","芒果","letv","乐视","pptv","PPTV","sohu","bilibili","哔哩哔哩","哔哩"]}},
{"name":"parwix2","type":0,"url":"https://jx.parwix.com:4433/player/analysis.php?v=","ext":{"flag":["qq","腾讯","qiyi","爱奇艺","奇艺","youku","优酷","mgtv","芒果","letv","乐视","pptv","PPTV","sohu","bilibili","哔哩哔哩","哔哩"]}},
{"name":"线路m9","type":1,"url":"https://api.m3u8.tv:5678/home/api?type=ys&uid=1931000&key=gktuvyzABEORSYZ135&url="},
{"name":"线路NX","type":1,"url":"https://vip.nxflv.com/home/api?uid=701203&key=bltuyCEFKLTX013679&url="},
{"name":"解析GGTV","type":1,"url":"https://play.fuqizhishi.com/maotv/API.php?appkey=xiongdimenbieguaiwodingbuzhulegailekey07201538&url="},
{"name":"解析星辰","type":1,"url":"https://svip.spchat.top/api/?type=ys&key=bKemW41JnxmQb4l67h&url=","ext":{"flag":["youku","优酷","mgtv","芒果","qq","腾讯","qiyi","爱奇艺","qq","奇艺"]}},
{"name":"解析parwix","type":0,"url":"https://jx.bozrc.com:4433/player/?url="},
{"name":"解析parwix2","type":0,"url":"https://jx.parwix.com:4433/player/analysis.php?v=","ext":{"flag":["qq","腾讯","qiyi","爱奇艺","奇艺","youku","优酷","mgtv","芒果","letv","乐视","pptv","PPTV","sohu","bilibili","哔哩哔哩","哔哩"]}},
{"name":"解析OKjx综合","type":0,"url":"https://okjx.cc/?url="},
{"name":"解析秒播","type":1,"url":"https://www.hfyrw.com/json.php?url="},
{"name": "搬运","type": 1,"url": "https://jx.bynote.top/API.php?url=","ext": {"flag": ["qiyi","iqiyi","奇艺","爱奇艺","qq","腾讯","youku","优酷","pptv","PPTV","letv","乐视","bilibili","哔哩哔哩","哔哩","mgtv","芒果","xigua","西瓜","sohu","搜狐","cntv","cctv","央视","1905","m1905"]}},
{"name": "爱豆","type": 1,"url": "http://id190.tpddns.cn:81/jsonch/?url=","ext": {"flag": ["qiyi","iqiyi","奇艺","爱奇艺","qq","腾讯","youku","优酷","pptv","PPTV","letv","乐视","bilibili","哔哩哔哩","哔哩","mgtv","芒果","xigua","西瓜","sohu","搜狐","cntv","cctv","央视","1905","m1905"]}},
{"name": "aiku","type": 1,	"url": "https://cache.json.icu/home/api?type=ys&uid=292796&key=bhjknprtuyACFIWY78&url="},
{"name":"yemu","type":0,"url":"https://www.yemu.xyz/?url="},
{"name":"okjx","type":0,"url":"https://okjx.cc/?url="},
{"name":"QIM解01","type":1,"url":"https://svip.renrenmi.cc:2222/api/?key=ogGC18CjsACNo60r3E&url=","ext":{"flag":["youku","优酷","mgtv","芒果","qq","腾讯","qiyi","爱奇艺","qq","奇艺"],"header":{"User-Agent":"Dart/2.14 (dart:io)"}}},
{"name":"QIM解02","type":1,"url":"http://106.52.218.221:88/?url=","ext":{"flag":["qq","腾讯","qiyi","爱奇艺","奇艺","youku","优酷","mgtv","芒果","letv","乐视","pptv","PPTV","sohu","bilibili","哔哩哔哩","哔哩"]}},
{"name":"QIM解03","type":0,"url":"https://www.m3u8.tv.cdn.8old.cn/jx.php?url=","ext":{"flag":["youku","优酷","mgtv","芒果","qq","腾讯","qiyi","爱奇艺","qq","奇艺"]}},
{"name":"GGTV","type": 1,"url":"https://play.fuqizhishi.com/gang/API.php?appkey=QQ172598364&url="},
{"name":"QIM解05","type":1,"url":"https://vip.nxflv.com/home/api?uid=701203&key=bltuyCEFKLTX013679&url=","ext":{"flag":["youku","优酷","mgtv","芒果","qq","腾讯","qiyi","爱奇艺","qq","奇艺"]}},
{"name":"QIM解06","type":0,"url":"https://jx.zui.cm/?url=","ext":{"flag":["youku","优酷","mgtv","芒果","qq","腾讯","qiyi","爱奇艺","qq","奇艺"]}},
{"name":"QIM解07","type":0,"url":"https://www.8090.la/8090/?url=","ext":{"flag":["youku","优酷","mgtv","芒果","qq","腾讯","qiyi","爱奇艺","qq","奇艺"]}},
{"name":"QIM解08","type":0,"url":"https://jx.m3u8.tv/jiexi/?url=","ext":{"flag":["youku","优酷","mgtv","芒果","qq","腾讯","qiyi","爱奇艺","qq","奇艺"]}},
{"name":"QIM解09","type":0,"url":"https://jx.bozrc.com:4433/player/?url=","ext":{"flag":["youku","优酷","mgtv","芒果","qq","腾讯","qiyi","爱奇艺","qq","奇艺"]}},
{"name":"QIM解10","type":0,"url":"https://jx.parwix.com:4433/player/?url=","ext":{"flag":["qq","腾讯","qiyi","爱奇艺","奇艺","youku","优酷","mgtv","芒果","letv","乐视","pptv","PPTV","sohu","bilibili","哔哩哔哩","哔哩"]}},
{"name":"QIM解11","type":0,"url":"https://jx.parwix.com:4433/player/analysis.php?v=","ext":{"flag":["qq","腾讯","qiyi","爱奇艺","奇艺","youku","优酷","mgtv","芒果","letv","乐视","pptv","PPTV","sohu","bilibili","哔哩哔哩","哔哩"]}},
{"name":"QI解01","type":1,"url":"https://svip.spchat.top/api/?type=ys&key=bKemW41JnxmQb4l67h&url=","ext":{"flag":["youku","优酷","mgtv","芒果","qq","腾讯","qiyi","爱奇艺","qq","奇艺","rx"]}},
{"name":"QI解03","type":1,"url":"http://47.98.234.2:7768/api.php?url=","ext":{"flag":["qq","qiyi","mgtv","youku","letv","sohu","xigua","1905"],"header":{"User-Agent":"Dart/2.14 (dart:io)"}}},
{"name":"QI解04","type":1,"url":"https://play.fuqizhishi.com/maotv/API.php?appkey=xiongdimenbieguaiwodingbuzhulegailekey07201538&url="},
{"name":"Q解05","type":1,"url":"https://play.fuqizhishi.com/maotv/API.php?appkey=QQ172598364&url=","ext": {"flag": ["qq","qiyi","mgtv","youku","letv","sohu","xigua","1905"],"header": {"User-Agent": "Dalvik/2.1.0"}}},
{"name":"Q解06","type":0,"url": "https://chaxun.truechat365.com/?url=","ext": {"flag": ["youku","优酷","mgtv","芒果","qq","腾讯","qiyi","爱奇艺","qq","奇艺"]}},
{"name":"I解07","type": 1,"url": " https://jisu.rongxingvr.top/api/?key=rCMmoKD0H0ShJ00u2f&url=","ext":{"flag": ["qq","qiyi","youku","pptv","le","sohu","bilibili","xigua","1905"]}},
{"name":"I解08","type":0,"url":"https://jx.blbo.cc:4433/?url=","ext": {"flag": ["youku","优酷","mgtv","芒果","qq","腾讯","qiyi","爱奇艺","qq","奇艺"]}}, 
{"name":"解析293","type":1,"url":"http://47.98.234.2:7768/api.php?url=","ext":{"flag":["qq","qiyi","mgtv","youku","letv","sohu","xigua","1905"],"header":{"User-Agent":"Dart/2.14 (dart:io)"}}},
{"name": "解析必成","type": 1,"url": " https://jisu.rongxingvr.top/api/?key=rCMmoKD0H0ShJ00u2f&url=","ext":{"flag": ["qq","qiyi","youku","pptv","le","sohu","bilibili","xigua","1905"]}},
{"name":"解析人迷","type":0,"url":"https://jx.blbo.cc:4433/?url="},
{"name":"解析第一","type":1,"url":"http://27.124.4.42:4567/jhjson/ceshi.php?url=","ext":{"flag":["qiyi","qq","letv","sohu","youku","mgtv","bilibili","wasu","xigua","1905"]}},
{"name":"解析最先","type":0,"url":"https://jx.zui.cm/?url=","ext":{"flag":["ltnb"]}},
{"name":"解析王牌","type":1,"url":"https://za.kuanjv.com/?url=","ext":{"flag":["qq","腾讯","qiyi","爱奇艺","奇艺","youku","优酷","mgtv","芒果","搜狐","sohu","letv","乐视","bilibili","哔哩哔哩","哔哩","xigua","西瓜"]}},
{"name":"解析诺讯","type":1,"url":"https://vip.nxflv.com/home/api?uid=701203&key=bltuyCEFKLTX013679&url="},
{"name":"解析乐多","type":1,"url":"https://api.ldjx.cc/wp-api/getvodurl.php?token=1001&vid=","ext":{"flag":["leduo"]}},
{"name":"解析知识","type":1,"url":"https://play.fuqizhishi.com/maotv/API.php?appkey=xiongdimenbieguaiwodingbuzhulegailekey07201538&url="},
{"name":"解析虾米","type":0,"url":"https://jx.xmflv.com/?url="},
{"name":"解析m3u8tv","type":0,"url":"https://jx.m3u8.tv/jiexi/?url="},
{"name":"①秒播","type":1,"url":"https://jx.hfyrw.com/mao.go?url="},
{"name":"②秒播","type":1,"url":"http://27.124.4.42:4567/jhjson/ceshi.php?url=","ext":{"flag":["qiyi","qq","letv","sohu","youku","mgtv","bilibili","wasu","xigua","1905"]}},
{"name":"③秒播","url": "http://81.71.48.249:4456/jsonc/293shipin.php?url=","type": 1,"i": "77","ext":{"flag":["qiyi","爱奇艺","奇艺","qq","腾讯","youku","优酷","pptv","PPTV","letv","乐视","bilibili","哔哩哔哩","哔哩","mgtv","芒果"]}},
{"name":"④秒播","type":1,"url":"http://106.55.234.91:4433/?url=","ext":{"flag":["qiyi","qq","letv","sohu","youku","mgtv","bilibili","wasu","xigua","1905"]}},
{"name": "⑤秒播","type": 1,"url": "http://81.71.48.249:4456/jsonc/longxia.php?url=","ext": {"flag": ["qq","qiyi","mgtv","youku","letv","sohu","xigua","1905"],"header": {"User-Agent": "Dart/2.14 (dart:io)"}}},
{"name":"⑦秒播","type":1,"url":"https://app.okmedcos.com/4k/?url="},
{"name":"⑧秒播","type":1,"url":"https://jie.1z1.cc/api/?key=HdMmTMfyf1uTOQUL0b&url="},
{"name":"Pro","type":1,"url":"http://api.vip123kan.vip/?url=","ext":{"flag":["youku","优酷","mgtv","芒果","qq","腾讯","qiyi","爱奇艺","qq","奇艺"]}},
{"name":"2","type":1,"url":"https://jx.mczdyw.com/xg.php?url=","ext":{"flag":["mgtv","芒果"]}},
{"name":"3","type":1,"url":"https://www.aiaine.com/api/?key=kVqmG5dAQ5dZTcECw8&url=","ext":{"flag":["youku","优酷","mgtv","芒果","qq","腾讯","qiyi","爱奇艺","qq","奇艺"]}},
{"name":"4","type":1,"url":"https://svip.rongxingvr.top/api/?key=niBgMGXVdCQhsmeEBK&url=","ext":{"flag":["youku","优酷","mgtv","芒果","qq","腾讯","qiyi","爱奇艺","qq","奇艺"]}},
{"name":"8","type":1,"url":"https://app.iminna.com/jx/?url=","ext":{"flag":["youku","优酷","mgtv","芒果","qq","腾讯","qiyi","爱奇艺","qq","奇艺"]}},
{"name":"飓风影院2","type":1,"url":"https://vvip.funsline.cn/api/?key=3xWfEoDf4V9p9Y20CR&url=","ext":{"flag":["ziqie","youku","优酷","qiyi","爱奇艺","奇艺","mgtv","芒果","qq","腾讯"]}},
{"name":"我爱电影网","type":1,"url":"https://jhpc.manduhu.com/j1217.php?url=","ext":{"flag":["qiyi","爱奇艺","奇艺","mgtv","芒果","youku","优酷","pptv","PPTV"]}},
{"name":"王牌","type":1,"url":"https://za.kuanjv.com/?url=","ext":{"flag":["qq","腾讯","qiyi","爱奇艺","奇艺","youku","优酷","mgtv","芒果","搜狐","sohu","letv","乐视","bilibili","哔哩哔哩","哔哩","xigua","西瓜"]}},
{"name":"盘古解析","type":1,"url":"https://json.pangujiexi.com:12345/json.php?url=","ext":{"flag":["qq","腾讯","qiyi","爱奇艺","奇艺","youku","优酷","mgtv","芒果"]}},
{"name":"欢雨","type":1,"url":"http://www.youhuifuligou.com/json/?id=7&url=","ext":{"flag":["qq","腾讯","qiyi","爱奇艺","奇艺","youku","优酷","letv","乐视","xigua","西瓜"]}}
],
"flags":["youku","qq","iqiyi","qiyi","letv","sohu","tudou","pptv","mgtv","wasu","bilibili","renrenmi"],
"ijk":[
{"group":"软解码","options":[
{"category":4     ,"name":"opensles","value":"0"},
{"category":4     ,"name":"overlay-format","value":"842225234"},
{"category":4     ,"name":"framedrop","value":"1"},
{"category":4     ,"name":"soundtouch","value":"1"},
{"category":4     ,"name":"start-on-prepared","value":"1"},
{"category":1     ,"name":"http-detect-range-support","value":"0"},
{"category":1     ,"name":"fflags","value":"fastseek"},
{"category":2     ,"name":"skip_loop_filter","value":"48"},
{"category":4     ,"name":"reconnect","value":"1"},
{"category":4     ,"name":"max-buffer-size","value":"5242880"},
{"category":4     ,"name":"enable-accurate-seek","value":"0"},
{"category":4     ,"name":"mediacodec","value":"0"},
{"category":4     ,"name":"mediacodec-auto-rotate","value":"0"},
{"category":4     ,"name":"mediacodec-handle-resolution-change","value":"0"},
{"category":4     ,"name":"mediacodec-hevc","value":"0"},
{"category":1     ,"name":"dns_cache_timeout","value":"600000000"}]},
{"group":"硬解码","options":[
{"category":4     ,"name":"opensles","value":"0"},
{"category":4     ,"name":"overlay-format","value":"842225234"},
{"category":4     ,"name":"framedrop","value":"1"},
{"category":4     ,"name":"soundtouch","value":"1"},
{"category":4     ,"name":"start-on-prepared","value":"1"},
{"category":1     ,"name":"http-detect-range-support","value":"0"},
{"category":1     ,"name":"fflags","value":"fastseek"},
{"category":2     ,"name":"skip_loop_filter","value":"48"},
{"category":4     ,"name":"reconnect","value":"1"},
{"category":4     ,"name":"max-buffer-size","value":"5242880"},
{"category":4     ,"name":"enable-accurate-seek","value":"0"},
{"category":4     ,"name":"mediacodec","value":"1"},
{"category":4     ,"name":"mediacodec-auto-rotate","value":"1"},
{"category":4     ,"name":"mediacodec-handle-resolution-change","value":"1"},
{"category":4     ,"name":"mediacodec-hevc","value":"1"},
{"category":1     ,"name":"dns_cache_timeout","value":"600000000"}]}],
"ads":["mimg.0c1q0l.cn",
    "www.googletagmanager.com",
    "www.google-analytics.com",
    "mc.usihnbcq.cn",
    "mg.g1mm3d.cn",
    "mscs.svaeuzh.cn",
    "cnzz.hhttm.top",
    "tp.vinuxhome.com",
    "cnzz.mmstat.com",
    "www.baihuillq.com",
    "s23.cnzz.com",
    "z3.cnzz.com",
    "c.cnzz.com",
    "stj.v1vo.top",
    "z12.cnzz.com",
    "img.mosflower.cn",
    "tips.gamevvip.com",
    "ehwe.yhdtns.com",
    "xdn.cqqc3.com",
    "www.jixunkyy.cn",
    "sp.chemacid.cn",
    "hm.baidu.com",
    "s9.cnzz.com",
    "z6.cnzz.com",
    "um.cavuc.com",
    "mav.mavuz.com",
    "wofwk.aoidf3.com",
    "z5.cnzz.com",
    "xc.hubeijieshikj.cn",
    "tj.tianwenhu.com",
    "xg.gars57.cn",
    "k.jinxiuzhilv.com",
    "cdn.bootcss.com",
    "ppl.xunzhuo123.com",
    "xomk.jiangjunmh.top",
    "img.xunzhuo123.com",
    "z1.cnzz.com",
    "v1.cnzz.com",
    "s13.cnzz.com",
    "xg.huataisangao.cn",
    "z7.cnzz.com",
    "xg.huataisangao.cn",
    "z2.cnzz.com",
    "s96.cnzz.com",
    "q11.cnzz.com",
    "thy.dacedsfa.cn",
    "xg.whsbpw.cn",
    "s19.cnzz.com",
    "z8.cnzz.com",
    "s4.cnzz.com",
    "f5w.as12df.top",
    "ae01.alicdn.com",
    "videocloud.cn-hangzhou.log.aliyuncs.com",
    "www.92424.cn",
    "k.wudejia.com",
    "vivovip.mmszxc.top",
    "qiu.xixiqiu.com",
    "cdnjs.hnfenxun.com",
    "cms.qdwght.com"]
}
